{
  "_class": "shapePath",
  "booleanOperation": -1,
  "do_objectID": "1FC1277E-9D87-4511-AC99-E4FAB2BCB7D1",
  "edited": true,
  "exportOptions": {
    "_class": "exportOptions",
    "exportFormats": [
    ],
    "includedLayerIds": [
    ],
    "layerOptions": 0,
    "shouldTrim": false
  },
  "frame": {
    "_class": "rect",
    "constrainProportions": false,
    "height": 1.000000000000001,
    "width": 125.5,
    "x": 0,
    "y": -4.440892098500628e-16
  },
  "isFlippedHorizontal": false,
  "isFlippedVertical": false,
  "isLocked": false,
  "isVisible": true,
  "layerListExpandedType": 0,
  "name": "Path",
  "nameIsFixed": false,
  "path": {
    "_class": "path",
    "isClosed": false,
    "pointRadiusBehaviour": 1,
    "points": [
      {
        "_class": "curvePoint",
        "cornerRadius": 0,
        "curveFrom": "{0.0013280212483401121, 1.2238738738738784}",
        "curveMode": 1,
        "curveTo": "{0.0013280212483401121, 1.2238738738738784}",
        "hasCurveFrom": false,
        "hasCurveTo": false,
        "point": "{0, 0.50000000000000011}"
      },
      {
        "_class": "curvePoint",
        "cornerRadius": 0,
        "curveFrom": "{0.0039840637450199584, 2.6716216216216244}",
        "curveMode": 1,
        "curveTo": "{0.0039840637450199584, 2.6716216216216244}",
        "hasCurveFrom": false,
        "hasCurveTo": false,
        "point": "{0.99999999999999989, 0.49999999999999978}"
      }
    ]
  },
  "resizingConstraint": 63,
  "resizingType": 0,
  "rotation": 0,
  "shouldBreakMaskChain": false
}