{
  "_class": "group",
  "do_objectID": "CFAD12FD-B3F1-404D-8FD0-05124E4E2CD3",
  "exportOptions": {
    "_class": "exportOptions",
    "exportFormats": [
    ],
    "includedLayerIds": [
    ],
    "layerOptions": 0,
    "shouldTrim": false
  },
  "frame": {
    "_class": "rect",
    "constrainProportions": false,
    "height": 28,
    "width": 647,
    "x": 607,
    "y": 222
  },
  "hasClickThrough": false,
  "isFlippedHorizontal": false,
  "isFlippedVertical": false,
  "isLocked": false,
  "isVisible": true,
  "layerListExpandedType": 2,
  "layers": [
    {
      "class": "shapeGroup",
      "id": "3CDFDB4B-5650-4EAF-845C-A58B9AEC8F28"
    },
    {
      "class": "shapeGroup",
      "id": "EFC238EE-B341-4976-A89B-EFD2C5F64230"
    },
    {
      "class": "text",
      "id": "150DF1EF-1D41-46ED-A13E-8CFC52681A3C"
    }
  ],
  "name": "new_epic copy 4",
  "nameIsFixed": true,
  "resizingConstraint": 63,
  "resizingType": 0,
  "rotation": 0,
  "shouldBreakMaskChain": false,
  "style": {
    "_class": "style",
    "endDecorationType": 0,
    "miterLimit": 10,
    "startDecorationType": 0
  }
}