{
  "_class": "group",
  "do_objectID": "B6A85E07-36D5-4A08-A3A6-1D92DB72F546",
  "exportOptions": {
    "_class": "exportOptions",
    "exportFormats": [
    ],
    "includedLayerIds": [
    ],
    "layerOptions": 0,
    "shouldTrim": false
  },
  "frame": {
    "_class": "rect",
    "constrainProportions": false,
    "height": 80,
    "width": 1295,
    "x": 0,
    "y": 0
  },
  "hasClickThrough": false,
  "isFlippedHorizontal": false,
  "isFlippedVertical": false,
  "isLocked": false,
  "isVisible": true,
  "layerListExpandedType": 0,
  "layers": [
    {
      "class": "shapeGroup",
      "id": "9C0D079E-382F-4A8F-A7A8-3ED96ACF32F1"
    },
    {
      "class": "shapeGroup",
      "id": "1EF600B5-4FF1-4F76-A285-F8F40CC604F0"
    },
    {
      "class": "symbolInstance",
      "id": "28EF9B5D-FFF8-4946-8C7A-295A27AD060A"
    },
    {
      "class": "symbolInstance",
      "id": "898179B1-EDF2-41E3-8B2D-4BD1A2E7EA6E"
    },
    {
      "class": "symbolInstance",
      "id": "345CA124-589D-446C-9F7C-08D5295A7228"
    },
    {
      "class": "symbolInstance",
      "id": "E1F48330-64F9-4C2F-8FC7-3D1416A10C73"
    },
    {
      "class": "shapeGroup",
      "id": "7D419141-8DAC-4C30-93C6-4746F3680492"
    },
    {
      "class": "symbolInstance",
      "id": "FFAA37C0-677F-4FED-9F67-3F64BFA763E8"
    },
    {
      "class": "symbolInstance",
      "id": "5C6F0C2E-7303-438C-A498-6446A331C56E"
    },
    {
      "class": "symbolInstance",
      "id": "21877E6F-DB29-4107-BC4B-BD0DF5F58BAD"
    },
    {
      "class": "symbolInstance",
      "id": "F8A9801C-27FF-4AB0-A0D1-7BC1D83B26DF"
    },
    {
      "class": "symbolInstance",
      "id": "468FC8E0-F9D7-4B49-A6C9-DC0CFAA739B2"
    },
    {
      "class": "symbolInstance",
      "id": "E04A0FD7-3104-45BF-89A8-2962ACF66AC1"
    },
    {
      "class": "symbolInstance",
      "id": "F0E240C4-F7CF-418F-B7C7-DBBCA0490B6F"
    },
    {
      "class": "symbolInstance",
      "id": "BEF0B61B-B830-45CF-8D1D-D1D649938941"
    },
    {
      "class": "symbolInstance",
      "id": "8E927E51-E1F4-498F-97E1-97FDF61BBC5A"
    },
    {
      "class": "symbolInstance",
      "id": "D91D2F9C-23CB-4BF6-82D1-7DC9A7AB9EF2"
    },
    {
      "class": "symbolInstance",
      "id": "0F87D2D5-A186-4C7E-94C2-F3E27D63C8AA"
    },
    {
      "class": "symbolInstance",
      "id": "41488355-2842-4504-9B54-3ED9C4548054"
    },
    {
      "class": "symbolInstance",
      "id": "AE40B6D7-9B70-488C-A4FC-19C14B43F190"
    },
    {
      "class": "symbolInstance",
      "id": "7F64182D-9C9A-4874-AEF0-63EC57A6241B"
    },
    {
      "class": "symbolInstance",
      "id": "FBA297AD-4DCA-4608-AB50-3E2349EAAC96"
    },
    {
      "class": "symbolInstance",
      "id": "1A19B910-7402-4C12-87B1-FFE35AB0EDA3"
    },
    {
      "class": "symbolInstance",
      "id": "552F094D-4A37-42B4-B4D9-ED39366B3935"
    },
    {
      "class": "symbolInstance",
      "id": "0314C46B-FDD4-4107-8B7C-16ADA31B78CE"
    },
    {
      "class": "symbolInstance",
      "id": "65ED65A5-7FF9-4F0E-8903-9C032E21B6C2"
    },
    {
      "class": "symbolInstance",
      "id": "41766249-BED2-434B-9D9C-79159D64CA2D"
    },
    {
      "class": "symbolInstance",
      "id": "B385AF47-C4FB-44CA-883C-040737E91530"
    },
    {
      "class": "symbolInstance",
      "id": "ED6AFBDF-8698-4506-A07E-9EF3B407B13B"
    },
    {
      "class": "symbolInstance",
      "id": "1B06DB0B-B2E5-45D7-835C-C700CDB40953"
    },
    {
      "class": "symbolInstance",
      "id": "252B8314-66A3-4CFC-B517-0C3C9D803D92"
    },
    {
      "class": "symbolInstance",
      "id": "971715D0-0474-429F-ADC7-E963CD256E8A"
    },
    {
      "class": "symbolInstance",
      "id": "7F62BB35-7B2E-46D4-8765-4F762A278B32"
    },
    {
      "class": "symbolInstance",
      "id": "826D2299-7C66-4189-AE8A-CC41AD017C36"
    },
    {
      "class": "symbolInstance",
      "id": "C3B953FD-642F-46DE-84F8-73F112DDF2FA"
    },
    {
      "class": "symbolInstance",
      "id": "E8DD00B2-936F-4137-B40A-88903A5BF191"
    },
    {
      "class": "symbolInstance",
      "id": "03D28CA5-F2A0-4AF4-99B3-9E91529F0C8F"
    },
    {
      "class": "symbolInstance",
      "id": "5E8AFA30-77B2-4270-952E-4A4C7B72373D"
    },
    {
      "class": "symbolInstance",
      "id": "ACD2A2C1-215C-4A6B-9A0A-2845374BA7FE"
    },
    {
      "class": "symbolInstance",
      "id": "7A3A9F08-BCB8-4994-8A60-80EBFF78A36B"
    },
    {
      "class": "symbolInstance",
      "id": "9844CAB0-EB1F-4B59-9AE2-7BE322B7C321"
    },
    {
      "class": "symbolInstance",
      "id": "29CDE9EC-C7FA-4C61-A2C4-EEB59239D187"
    },
    {
      "class": "symbolInstance",
      "id": "798BECBF-6BCD-4B69-AF63-331D071BCFDB"
    },
    {
      "class": "symbolInstance",
      "id": "2F0A2A44-33D4-4135-B0EE-432CF8272C26"
    },
    {
      "class": "symbolInstance",
      "id": "DB338BAB-C8ED-4C06-BB54-BA8100D4A693"
    },
    {
      "class": "symbolInstance",
      "id": "34C9D4BA-B81D-4C90-AB33-3A82BFD1FD80"
    },
    {
      "class": "symbolInstance",
      "id": "755C409F-AB28-47EB-BCC2-7EFE402362E8"
    },
    {
      "class": "symbolInstance",
      "id": "317FC157-1B4F-4910-9ECB-50C9D3C9246F"
    },
    {
      "class": "symbolInstance",
      "id": "9A632989-82F2-4D94-A09E-B3B1E5B756E5"
    },
    {
      "class": "symbolInstance",
      "id": "A80D57F4-DD93-44D4-BD96-08121C9EA421"
    },
    {
      "class": "symbolInstance",
      "id": "2DCDA20D-EB0F-4B3A-A820-351F6CA1092E"
    },
    {
      "class": "symbolInstance",
      "id": "D3FDBE3F-CA16-4055-AC48-C61A0091B65A"
    },
    {
      "class": "symbolInstance",
      "id": "D0812D8C-2384-498E-8779-FABD5EDC12DC"
    },
    {
      "class": "symbolInstance",
      "id": "E69E3157-83CD-480B-A7A5-4D83E57CE763"
    },
    {
      "class": "symbolInstance",
      "id": "980FF58E-EF65-436B-A4A5-2D9BF5B1461B"
    },
    {
      "class": "symbolInstance",
      "id": "0D09B6A2-CD90-4606-805F-EBBAF265A802"
    },
    {
      "class": "symbolInstance",
      "id": "B284F4D7-5F3B-4B0B-99F5-5FE2CEBF6BF4"
    },
    {
      "class": "symbolInstance",
      "id": "F7C7F31F-2A82-464F-A8DC-9100C162545C"
    },
    {
      "class": "symbolInstance",
      "id": "4FE88044-C1C5-45DA-9F02-F3E76B9DA389"
    },
    {
      "class": "symbolInstance",
      "id": "562D6184-816F-47DF-9ED4-DE8863EA23F6"
    },
    {
      "class": "symbolInstance",
      "id": "F23BDE3F-99FD-4BB3-900A-C4D448A35D71"
    }
  ],
  "name": "timeline",
  "nameIsFixed": true,
  "resizingConstraint": 63,
  "resizingType": 0,
  "rotation": 0,
  "shouldBreakMaskChain": false,
  "style": {
    "_class": "style",
    "endDecorationType": 0,
    "miterLimit": 10,
    "startDecorationType": 0
  }
}