{
  "_class": "group",
  "do_objectID": "144C14FF-7C6F-4FCE-9291-304BE140B92B",
  "exportOptions": {
    "_class": "exportOptions",
    "exportFormats": [
    ],
    "includedLayerIds": [
    ],
    "layerOptions": 0,
    "shouldTrim": false
  },
  "frame": {
    "_class": "rect",
    "constrainProportions": false,
    "height": 51,
    "width": 98,
    "x": 314,
    "y": 0
  },
  "hasClickThrough": false,
  "isFlippedHorizontal": false,
  "isFlippedVertical": false,
  "isLocked": false,
  "isVisible": true,
  "layerListExpandedType": 0,
  "layers": [
    {
      "class": "shapeGroup",
      "id": "88714ADA-B9EA-4FE8-A91C-CDDF99D63940"
    },
    {
      "class": "shapeGroup",
      "id": "B940393B-7C69-4824-BBB4-054C7F5ADD10"
    },
    {
      "class": "shapeGroup",
      "id": "C53F0F86-C397-428B-A609-8230FE892AC6"
    },
    {
      "class": "shapeGroup",
      "id": "6C284A0B-DA90-4BEB-90C7-DA8DACA3BD41"
    },
    {
      "class": "shapeGroup",
      "id": "252F9138-E7E3-4566-9ADF-66BA3879061D"
    },
    {
      "class": "group",
      "id": "30A24D0E-A1D6-45F0-A82A-81077DD260B9"
    },
    {
      "class": "text",
      "id": "BFFCDB87-A5E5-4760-A06D-FEB56240A9EB"
    }
  ],
  "name": "changes",
  "nameIsFixed": true,
  "resizingConstraint": 44,
  "resizingType": 1,
  "rotation": 0,
  "shouldBreakMaskChain": false,
  "style": {
    "_class": "style",
    "endDecorationType": 0,
    "miterLimit": 10,
    "startDecorationType": 0
  }
}