{
  "orientation" : 0,
  "updateDelay" : 0.3,
  "designModeSelected" : 0,
  "cachedDeviceHeight" : 0,
  "contentScale" : 1,
  "cachedDeviceWidth" : 0,
  "sharedPrototype" : true,
  "propertyPanelToggleStates" : {
    "Filters" : false
  },
  "deviceType" : "fullscreen",
  "projectId" : "34CB3435-8656-4AED-8350-298493A2433B",
  "deviceOrientation" : 0,
  "selectedHand" : "",
  "foldedCodeRanges" : [

  ],
  "deviceScale" : 1
}