{
  "_class": "group",
  "do_objectID": "DE417B1C-A4AE-4188-A2F8-472104782780",
  "exportOptions": {
    "_class": "exportOptions",
    "exportFormats": [
    ],
    "includedLayerIds": [
    ],
    "layerOptions": 0,
    "shouldTrim": false
  },
  "frame": {
    "_class": "rect",
    "constrainProportions": false,
    "height": 625,
    "width": 1459,
    "x": 343,
    "y": 154
  },
  "hasClickThrough": false,
  "isFlippedHorizontal": false,
  "isFlippedVertical": false,
  "isLocked": false,
  "isVisible": true,
  "layerListExpandedType": 0,
  "layers": [
    {
      "class": "group",
      "id": "735347C7-9AC2-4B81-80EC-6C548EE7093B"
    },
    {
      "class": "symbolInstance",
      "id": "8373282E-10F9-4CE1-BCB1-E86550B3B95F"
    },
    {
      "class": "symbolInstance",
      "id": "5EA13196-83FE-467D-9D96-0840AD2F151B"
    },
    {
      "class": "symbolInstance",
      "id": "947C6426-7166-4E16-80EE-65E6DE0FBB1F"
    },
    {
      "class": "symbolInstance",
      "id": "2EB5C7A9-004C-403B-BAB6-5595F5010C71"
    },
    {
      "class": "symbolInstance",
      "id": "6722EFE8-2E7D-464B-A28C-7E41764A3148"
    },
    {
      "class": "symbolInstance",
      "id": "B43A45BE-FAFD-47B6-85E1-187926997388"
    },
    {
      "class": "symbolInstance",
      "id": "A051C858-0BE7-4313-BEAD-10B0DFACD529"
    },
    {
      "class": "symbolInstance",
      "id": "4054F041-344F-44AB-B26C-EB96577BF252"
    },
    {
      "class": "symbolInstance",
      "id": "9A932125-1B65-4D1E-B7DC-A706A716064B"
    },
    {
      "class": "symbolInstance",
      "id": "37790C0E-BA53-4BD3-8D9D-40DE89319562"
    },
    {
      "class": "symbolInstance",
      "id": "E20628B2-4F72-4199-ABB0-D8AB41ABE0AA"
    },
    {
      "class": "symbolInstance",
      "id": "EAADB580-6CF6-448F-A8C3-A06F6261CDEB"
    },
    {
      "class": "symbolInstance",
      "id": "A8938D8E-F7EC-4EB3-91B2-B464228FA365"
    },
    {
      "class": "symbolInstance",
      "id": "59C8FD4E-86DA-438D-AC1C-81A4C144CBAF"
    },
    {
      "class": "symbolInstance",
      "id": "A1AEFD58-BF1B-41C3-9E25-AD54ED2C3F7E"
    },
    {
      "class": "symbolInstance",
      "id": "EBB4A573-EEDB-46AE-9721-834A45EE024A"
    },
    {
      "class": "symbolInstance",
      "id": "17FA85C1-E2F4-41DF-9D2C-813966A38A2E"
    },
    {
      "class": "symbolInstance",
      "id": "8907E507-C108-4BC9-BA82-A51C86ECA24F"
    },
    {
      "class": "symbolInstance",
      "id": "82E7E1AD-B405-4B66-8EAE-FA88A56AC0C6"
    },
    {
      "class": "symbolInstance",
      "id": "B3EFEFCE-9868-47A9-B41A-2CAE14FAADBB"
    },
    {
      "class": "symbolInstance",
      "id": "5433790A-3B95-4AC6-B350-5216265DA0E5"
    },
    {
      "class": "symbolInstance",
      "id": "2B53AFD8-90E7-4AF5-B6B6-E7C3B731C242"
    },
    {
      "class": "symbolInstance",
      "id": "20DC2F1B-C1E8-4BF3-88A8-B73580ED9CD6"
    },
    {
      "class": "symbolInstance",
      "id": "27D9BBF6-5C92-4FA4-B522-9F34A24CCCCD"
    },
    {
      "class": "symbolInstance",
      "id": "85FE5965-111D-4D01-A4FE-AE9A12149F90"
    },
    {
      "class": "symbolInstance",
      "id": "8633D5BF-E9E2-471E-BDAE-BF36D22C690F"
    },
    {
      "class": "symbolInstance",
      "id": "FC4E26A6-D454-4389-BF88-A1C277086B9C"
    },
    {
      "class": "symbolInstance",
      "id": "7C1EB1C1-76AC-44FE-BC83-65FE54172376"
    },
    {
      "class": "symbolInstance",
      "id": "858E705D-0E17-4E55-B28D-421DE07C1F0B"
    },
    {
      "class": "symbolInstance",
      "id": "2F681EDF-8381-4501-B362-6EAAB5EA53ED"
    },
    {
      "class": "symbolInstance",
      "id": "2A319B48-0B9E-46C7-A56D-A7DA3A55B19B"
    },
    {
      "class": "symbolInstance",
      "id": "60ECFB4A-0FD2-4A9D-B07B-1B360740E3D7"
    },
    {
      "class": "symbolInstance",
      "id": "03A9A5ED-9FFE-40FB-96A7-13BC729505C0"
    },
    {
      "class": "symbolInstance",
      "id": "C45CB72D-87A1-4E2C-B1D1-D65C8A018E21"
    },
    {
      "class": "symbolInstance",
      "id": "A73CCE49-10DC-478D-8B24-A5F51674FBDE"
    },
    {
      "class": "symbolInstance",
      "id": "BD7C3C6D-41D7-45D2-A66D-E268014480E5"
    },
    {
      "class": "symbolInstance",
      "id": "DFB11F50-2C4D-4369-BBA4-95F9BD8D8D14"
    },
    {
      "class": "symbolInstance",
      "id": "231058B1-AF2F-4197-9137-E2FC1D593183"
    },
    {
      "class": "symbolInstance",
      "id": "0B75855A-F9C0-4C09-BF5B-4EE63B3F644B"
    },
    {
      "class": "symbolInstance",
      "id": "D5CA0FC3-6A3A-4260-A2BC-27A852C3A080"
    },
    {
      "class": "symbolInstance",
      "id": "8A1464FC-93A0-4876-9789-E32F0B74BFFE"
    },
    {
      "class": "symbolInstance",
      "id": "6CB7140F-908C-4251-93E4-627F8BB96797"
    },
    {
      "class": "symbolInstance",
      "id": "E18BFEA5-530A-47A6-B2C2-59C3ED0B1EC8"
    },
    {
      "class": "symbolInstance",
      "id": "CB045046-655F-402F-A002-0C9736160B1D"
    },
    {
      "class": "symbolInstance",
      "id": "1530F4E5-23A1-4819-97D9-38E172CE154B"
    },
    {
      "class": "symbolInstance",
      "id": "BA2CB048-075C-4689-9069-39484B6AF5A4"
    },
    {
      "class": "symbolInstance",
      "id": "2181E7DD-DD7F-474D-B9A1-BD523977FAE4"
    },
    {
      "class": "symbolInstance",
      "id": "F41B3B9B-BFEF-4510-B334-ABD39E692815"
    },
    {
      "class": "symbolInstance",
      "id": "87DA596B-F932-4633-875A-94CCCBE6348F"
    },
    {
      "class": "symbolInstance",
      "id": "D182B956-4EE2-47D2-AC3A-C01DD0654132"
    },
    {
      "class": "symbolInstance",
      "id": "166ACD6B-B299-4F5B-82D2-897759C1DE4C"
    },
    {
      "class": "symbolInstance",
      "id": "82800093-9748-401C-B3F6-94B757111C81"
    },
    {
      "class": "symbolInstance",
      "id": "168BE81E-FC15-48BE-962C-6F2CCA672A1F"
    },
    {
      "class": "symbolInstance",
      "id": "F02E0460-B4A6-4BB1-9695-59FA342CE8C6"
    }
  ],
  "name": "weekenddays",
  "nameIsFixed": true,
  "resizingConstraint": 63,
  "resizingType": 0,
  "rotation": 0,
  "shouldBreakMaskChain": false,
  "style": {
    "_class": "style",
    "endDecorationType": 0,
    "miterLimit": 10,
    "startDecorationType": 0
  }
}