{
  "_class": "group",
  "do_objectID": "37EEA767-1887-4B78-9D55-E6110EBF6192",
  "exportOptions": {
    "_class": "exportOptions",
    "exportFormats": [
    ],
    "includedLayerIds": [
    ],
    "layerOptions": 0,
    "shouldTrim": false
  },
  "frame": {
    "_class": "rect",
    "constrainProportions": false,
    "height": 50,
    "width": 111,
    "x": 0,
    "y": 0
  },
  "hasClickThrough": false,
  "isFlippedHorizontal": false,
  "isFlippedVertical": false,
  "isLocked": false,
  "isVisible": true,
  "layerListExpandedType": 0,
  "layers": [
    {
      "class": "shapeGroup",
      "id": "B3E5CC15-9573-4831-89E2-6460C982065B"
    },
    {
      "class": "shapeGroup",
      "id": "1C1AD2A8-2BD6-4E21-95D3-A23EB05B4BF2"
    },
    {
      "class": "shapeGroup",
      "id": "387054BF-D9CD-4856-9FFE-97BF994F70E5"
    },
    {
      "class": "shapeGroup",
      "id": "BB2A1F95-EDC0-4E8B-B710-1E3315456367"
    },
    {
      "class": "shapeGroup",
      "id": "7576D3F3-40F6-4964-9963-4A70C840141B"
    },
    {
      "class": "group",
      "id": "5B9EC00A-4EA0-4B89-B6ED-B1C388F0BB4F"
    },
    {
      "class": "text",
      "id": "339E8BAC-90CC-4F75-83BB-964F1F8A26C5"
    }
  ],
  "name": "discussion",
  "nameIsFixed": true,
  "resizingConstraint": 41,
  "resizingType": 1,
  "rotation": 0,
  "shouldBreakMaskChain": false,
  "style": {
    "_class": "style",
    "endDecorationType": 0,
    "miterLimit": 10,
    "startDecorationType": 0
  }
}