{
  "_class": "shapePath",
  "booleanOperation": -1,
  "do_objectID": "1AD928FD-2123-4C44-B386-F2E99B57B73F",
  "edited": true,
  "exportOptions": {
    "_class": "exportOptions",
    "exportFormats": [
    ],
    "includedLayerIds": [
    ],
    "layerOptions": 0,
    "shouldTrim": false
  },
  "frame": {
    "_class": "rect",
    "constrainProportions": false,
    "height": 1.050558140571723,
    "width": 1.05029254086161,
    "x": 8.373378998276301,
    "y": 1.900165888515394
  },
  "isFlippedHorizontal": false,
  "isFlippedVertical": false,
  "isLocked": false,
  "isVisible": true,
  "layerListExpandedType": 0,
  "name": "Path",
  "nameIsFixed": false,
  "path": {
    "_class": "path",
    "isClosed": true,
    "pointRadiusBehaviour": 1,
    "points": [
      {
        "_class": "curvePoint",
        "cornerRadius": 0,
        "curveFrom": "{0.038000000000001144, 4.4408920985006262e-16}",
        "curveMode": 1,
        "curveTo": "{0.038000000000001144, 4.4408920985006262e-16}",
        "hasCurveFrom": false,
        "hasCurveTo": false,
        "point": "{0.038000000000001144, 4.4408920985006262e-16}"
      },
      {
        "_class": "curvePoint",
        "cornerRadius": 0,
        "curveFrom": "{0.013501102111037611, 0.030075228123496167}",
        "curveMode": 4,
        "curveTo": "{0, 0.044000000000000483}",
        "hasCurveFrom": true,
        "hasCurveTo": false,
        "point": "{0, 0.044000000000000483}"
      },
      {
        "_class": "curvePoint",
        "cornerRadius": 0,
        "curveFrom": "{0.038000000000001144, 0}",
        "curveMode": 4,
        "curveTo": "{0.02618878848627304, 0.015384222846907658}",
        "hasCurveFrom": false,
        "hasCurveTo": true,
        "point": "{0.038000000000001144, 0}"
      }
    ]
  },
  "resizingConstraint": 63,
  "resizingType": 0,
  "rotation": 0,
  "shouldBreakMaskChain": false
}